<?xml version="1.0" encoding="UTF-8"?>
<session version="1.0">
<refactoring comment="Rename resource &apos;config/opc_config_1c_16b_20h2.xml&apos; to &apos;opc_config_1c_16b_20h.xml&apos;" description="Rename resource &apos;opc_config_1c_16b_20h2.xml&apos;" flags="7" id="org.eclipse.ltk.core.refactoring.rename.resource" input="opc_config_1c_16b_20h2.xml" name="opc_config_1c_16b_20h.xml" stamp="1511798491858" updateReferences="true"/>
</session>