	/lib64/ld-linux-x86-64.so.2 (0x00007ff663e62000)
	libc.so.6 => /lib64/libc.so.6 (0x00007ff663038000)
	libgcc_s.so.1 => /lib64/libgcc_s.so.1 (0x00007ff6633fa000)
	libm.so.6 => /lib64/libm.so.6 (0x00007ff66382d000)
	libpthread.so.0 => /lib64/libpthread.so.0 (0x00007ff663610000)
	libstdc++.so.6 => /lib64/libstdc++.so.6 (0x00007ff663b2f000)
	linux-vdso.so.1 =>  (0x00007ffd41b5b000)
