<?xml version="1.0" encoding="UTF-8"?>
<session version="1.0">
<refactoring comment="Rename resource &apos;simulationHAL/config/atlas/sim_ATL.MDT.PS3.2.xml&apos; to &apos;sim_ATL.MDT.PS3.xml&apos;" description="Rename resource &apos;sim_ATL.MDT.PS3.2.xml&apos;" flags="7" id="org.eclipse.ltk.core.refactoring.rename.resource" input="config/atlas/sim_ATL.MDT.PS3.2.xml" name="sim_ATL.MDT.PS3.xml" stamp="1491205098696" updateReferences="true"/>
</session>