<?xml version="1.0" encoding="UTF-8"?>
<session version="1.0">
<refactoring comment="Move &apos;convertToConfig.sh&apos; to &apos;scripts&apos;" description="Move &apos;convertToConfig.sh&apos; to &apos;scripts&apos;" destination="/scripts" element1="/discoveryCAEN/WinCCOA.Atlas.dpl/convertToConfig.sh" flags="7" id="org.eclipse.ltk.core.refactoring.move.resources" resources="1" stamp="1490263983393" updateReferences="true"/>
</session>